<svg xmlns="http://www.w3.org/2000/svg" xmlns:xlink="http://www.w3.org/1999/xlink" width="33" height="33" viewBox="0 0 33 33">
    <defs>
        <path id="a" d="M0 0h32.791v32.792H.001z"/>
    </defs>
    <g fill="none" fill-rule="evenodd">
        <mask id="b" fill="#fff">
            <use xlink:href="#a"/>
        </mask>
        <path fill="#0064FF" d="M8.538 25.468c-.351.35-1.14.589-1.944.725.139-.813.381-1.598.723-1.94.233-.233.454-.388.695-.388.186 0 .382.091.602.312.197.198.31.418.31.602 0 .25-.21.513-.386.689m-3.236-3.232c-1.638 1.637-1.702 4.916-1.699 5.552.005.78.637 1.44 1.417 1.44h.047c.734 0 3.883-.12 5.486-1.72 1.01-1.01 1.224-2.042 1.224-2.717 0-.95-.408-1.886-1.148-2.626-1.804-1.802-4.026-1.228-5.327.071M25.374 7.431c.431.431.677 1.03.677 1.641 0 .609-.246 1.204-.677 1.635a2.335 2.335 0 0 1-1.64.682 2.325 2.325 0 0 1-2.316-2.317c0-.61.248-1.21.68-1.641a2.326 2.326 0 0 1 3.276 0m-9.21 14.206l-5.027-5.022c2.52-6.745 8.774-13.953 18.795-13.759.337 11.942-9.523 17.113-13.769 18.78m2.819 6.38a7.883 7.883 0 0 0-.94-4.064 29.666 29.666 0 0 0 2.999-1.48c.383 2.047-.526 4.014-2.059 5.544M4.781 13.821c1.516-1.516 3.463-2.42 5.492-2.063a26.924 26.924 0 0 0-1.458 2.983 7.89 7.89 0 0 0-4.034-.92M32.703 1.376A1.428 1.428 0 0 0 31.392.073c-9.002-.7-15.485 3.658-19.491 9.16-2.213-.727-4.59-.468-6.758.754-2.087 1.176-3.866 3.157-5.008 5.58a1.428 1.428 0 0 0 1.955 1.87c2.283-1.206 4.853-.98 6.397.563l6.285 6.276c.011.013.019.028.031.039 1.541 1.54 1.768 4.106.564 6.386a1.424 1.424 0 0 0 1.867 1.955c2.425-1.14 4.408-2.915 5.585-5.001 1.23-2.178 1.486-4.569.744-6.791 1.616-1.16 3.063-2.47 4.28-3.888 3.73-4.356 5.365-9.604 4.86-15.6" mask="url(#b)"/>
    </g>
</svg>
