<svg xmlns="http://www.w3.org/2000/svg" xmlns:xlink="http://www.w3.org/1999/xlink" width="12" height="12" style="background:#fff" viewBox="0 0 12 12">
    <defs>
        <path id="a" d="M0 0h11.855v11.855H0z"/>
    </defs>
    <g fill="none" fill-rule="evenodd">
        <mask id="b" fill="#fff">
            <use xlink:href="#a"/>
        </mask>
        <path fill="#FFF" d="M10.306 4.379h-2.83v-2.83a1.55 1.55 0 0 0-3.097 0v2.83h-2.83a1.548 1.548 0 0 0 0 3.097h2.83v2.83a1.549 1.549 0 0 0 3.097 0v-2.83h2.83a1.548 1.548 0 0 0 0-3.097" mask="url(#b)"/>
    </g>
</svg>
